%YAML 1.1
%TAG !u! tag:unity3d.com,2011:
--- !u!114 &11400000
MonoBehaviour:
  m_ObjectHideFlags: 0
  m_CorrespondingSourceObject: {fileID: 0}
  m_PrefabInstance: {fileID: 0}
  m_PrefabAsset: {fileID: 0}
  m_GameObject: {fileID: 0}
  m_Enabled: 1
  m_EditorHideFlags: 0
  m_Script: {fileID: 11500000, guid: bbb281ee3bf0b054c82ac2347e9e782c, type: 3}
  m_Name: Default Local Group
  m_EditorClassIdentifier: 
  m_GroupName: Default Local Group
  m_Data:
    m_SerializedData: []
  m_GUID: bf004609586d45d4b9a7ea23534437a8
  m_SerializeEntries: []
  m_ReadOnly: 0
  m_Settings: {fileID: 11400000, guid: 4741602ba80bb4749aaa78e9ec16dd78, type: 2}
  m_SchemaSet:
    m_Schemas:
    - {fileID: 11400000, guid: 232b5ec327015af419acd98cbd254f4b, type: 2}
    - {fileID: 11400000, guid: ea7283f1590509a4d9fb0484f0e2d84e, type: 2}
